{
    "type": "sqlite",
    "database": "database.sqlite",
    "synchronize": true,
    "logging": true,
    "entities": ["src/entity/**/*.ts"],
    "migrationsTableName": "custom_migration_table",
    "migrations": ["src/migration/**/*.ts"],
    "subscribers": ["src/subscriber/**/*ts"],
    "cli": {
        "entitiesDir": "src/entity",
        "migrationsDir": "src/migration",
        "subscribersDir": "src/subscriber"
    }
}